(kicad_pcb (version 4) (host pcbnew 4.0.7)

  (general
    (links 0)
    (no_connects 0)
    (area 89.924999 69.924999 140.075001 100.456602)
    (thickness 1.6)
    (drawings 26)
    (tracks 63)
    (zones 0)
    (modules 6)
    (nets 1)
  )

  (page A)
  (layers
    (0 F.Cu signal)
    (31 B.Cu signal)
    (32 B.Adhes user)
    (33 F.Adhes user)
    (34 B.Paste user)
    (35 F.Paste user)
    (36 B.SilkS user)
    (37 F.SilkS user)
    (38 B.Mask user)
    (39 F.Mask user)
    (40 Dwgs.User user)
    (41 Cmts.User user)
    (42 Eco1.User user)
    (43 Eco2.User user)
    (44 Edge.Cuts user)
    (45 Margin user)
    (46 B.CrtYd user)
    (47 F.CrtYd user)
    (48 B.Fab user)
    (49 F.Fab user)
  )

  (setup
    (last_trace_width 0.5)
    (user_trace_width 0.025)
    (user_trace_width 0.25)
    (user_trace_width 0.5)
    (user_trace_width 0.75)
    (user_trace_width 1)
    (trace_clearance 0.2)
    (zone_clearance 0.508)
    (zone_45_only no)
    (trace_min 0.02)
    (segment_width 0.2)
    (edge_width 0.1)
    (via_size 0.6)
    (via_drill 0.4)
    (via_min_size 0.4)
    (via_min_drill 0.3)
    (user_via 1 0.3429)
    (user_via 1.75 0.5334)
    (user_via 3 1.016)
    (uvia_size 0.3)
    (uvia_drill 0.1)
    (uvias_allowed no)
    (uvia_min_size 0)
    (uvia_min_drill 0)
    (pcb_text_width 0.3)
    (pcb_text_size 1.5 1.5)
    (mod_edge_width 0.15)
    (mod_text_size 1 1)
    (mod_text_width 0.15)
    (pad_size 1.524 1.524)
    (pad_drill 0.762)
    (pad_to_mask_clearance 0.2)
    (aux_axis_origin 0 0)
    (visible_elements FFFFFF7F)
    (pcbplotparams
      (layerselection 0x00030_80000001)
      (usegerberextensions false)
      (excludeedgelayer true)
      (linewidth 0.100000)
      (plotframeref false)
      (viasonmask false)
      (mode 1)
      (useauxorigin false)
      (hpglpennumber 1)
      (hpglpenspeed 20)
      (hpglpendiameter 15)
      (hpglpenoverlay 2)
      (psnegative false)
      (psa4output false)
      (plotreference true)
      (plotvalue true)
      (plotinvisibletext false)
      (padsonsilk false)
      (subtractmaskfromsilk false)
      (outputformat 1)
      (mirror false)
      (drillshape 0)
      (scaleselection 1)
      (outputdirectory ./PCBTest))
  )

  (net 0 "")

  (net_class Default "This is the default net class."
    (clearance 0.2)
    (trace_width 0.25)
    (via_dia 0.6)
    (via_drill 0.4)
    (uvia_dia 0.3)
    (uvia_drill 0.1)
  )

  (module Capacitors_SMD:C_0201 (layer F.Cu) (tedit 59F5097C) (tstamp 59F4F9E1)
    (at 95.25 73.66)
    (descr "Capacitor SMD 0201, reflow soldering, AVX (see smccp.pdf)")
    (tags "capacitor 0201")
    (attr smd)
    (fp_text reference REF** (at 0 -1.27) (layer F.SilkS) hide
      (effects (font (size 1 1) (thickness 0.15)))
    )
    (fp_text value C_0201 (at 0 1.27) (layer F.Fab) hide
      (effects (font (size 1 1) (thickness 0.15)))
    )
    (fp_text user %R (at 0 -1.27) (layer F.Fab) hide
      (effects (font (size 1 1) (thickness 0.15)))
    )
    (fp_line (start -0.3 0.15) (end -0.3 -0.15) (layer F.Fab) (width 0.1))
    (fp_line (start 0.3 0.15) (end -0.3 0.15) (layer F.Fab) (width 0.1))
    (fp_line (start 0.3 -0.15) (end 0.3 0.15) (layer F.Fab) (width 0.1))
    (fp_line (start -0.3 -0.15) (end 0.3 -0.15) (layer F.Fab) (width 0.1))
    (fp_line (start 0.25 0.4) (end -0.25 0.4) (layer F.SilkS) (width 0.12))
    (fp_line (start -0.25 -0.4) (end 0.25 -0.4) (layer F.SilkS) (width 0.12))
    (fp_line (start -0.58 -0.33) (end 0.58 -0.33) (layer F.CrtYd) (width 0.05))
    (fp_line (start -0.58 -0.33) (end -0.58 0.32) (layer F.CrtYd) (width 0.05))
    (fp_line (start 0.58 0.32) (end 0.58 -0.33) (layer F.CrtYd) (width 0.05))
    (fp_line (start 0.58 0.32) (end -0.58 0.32) (layer F.CrtYd) (width 0.05))
    (pad 1 smd rect (at -0.28 0) (size 0.3 0.35) (layers F.Cu F.Paste F.Mask))
    (pad 2 smd rect (at 0.28 0) (size 0.3 0.35) (layers F.Cu F.Paste F.Mask))
    (model Capacitors_SMD.3dshapes/C_0201.wrl
      (at (xyz 0 0 0))
      (scale (xyz 1 1 1))
      (rotate (xyz 0 0 0))
    )
  )

  (module Capacitors_SMD:C_0402 (layer F.Cu) (tedit 59F50980) (tstamp 59F4F9EE)
    (at 101.6 73.66)
    (descr "Capacitor SMD 0402, reflow soldering, AVX (see smccp.pdf)")
    (tags "capacitor 0402")
    (attr smd)
    (fp_text reference REF** (at 0 -1.27) (layer F.SilkS) hide
      (effects (font (size 1 1) (thickness 0.15)))
    )
    (fp_text value C_0402 (at 0 1.27) (layer F.Fab) hide
      (effects (font (size 1 1) (thickness 0.15)))
    )
    (fp_text user %R (at 0 -1.27) (layer F.Fab) hide
      (effects (font (size 1 1) (thickness 0.15)))
    )
    (fp_line (start -0.5 0.25) (end -0.5 -0.25) (layer F.Fab) (width 0.1))
    (fp_line (start 0.5 0.25) (end -0.5 0.25) (layer F.Fab) (width 0.1))
    (fp_line (start 0.5 -0.25) (end 0.5 0.25) (layer F.Fab) (width 0.1))
    (fp_line (start -0.5 -0.25) (end 0.5 -0.25) (layer F.Fab) (width 0.1))
    (fp_line (start 0.25 -0.47) (end -0.25 -0.47) (layer F.SilkS) (width 0.12))
    (fp_line (start -0.25 0.47) (end 0.25 0.47) (layer F.SilkS) (width 0.12))
    (fp_line (start -1 -0.4) (end 1 -0.4) (layer F.CrtYd) (width 0.05))
    (fp_line (start -1 -0.4) (end -1 0.4) (layer F.CrtYd) (width 0.05))
    (fp_line (start 1 0.4) (end 1 -0.4) (layer F.CrtYd) (width 0.05))
    (fp_line (start 1 0.4) (end -1 0.4) (layer F.CrtYd) (width 0.05))
    (pad 1 smd rect (at -0.55 0) (size 0.6 0.5) (layers F.Cu F.Paste F.Mask))
    (pad 2 smd rect (at 0.55 0) (size 0.6 0.5) (layers F.Cu F.Paste F.Mask))
    (model Capacitors_SMD.3dshapes/C_0402.wrl
      (at (xyz 0 0 0))
      (scale (xyz 1 1 1))
      (rotate (xyz 0 0 0))
    )
  )

  (module Capacitors_SMD:C_0603 (layer F.Cu) (tedit 59F50983) (tstamp 59F4F9F7)
    (at 107.95 73.66)
    (descr "Capacitor SMD 0603, reflow soldering, AVX (see smccp.pdf)")
    (tags "capacitor 0603")
    (attr smd)
    (fp_text reference REF** (at 0 -1.5) (layer F.SilkS) hide
      (effects (font (size 1 1) (thickness 0.15)))
    )
    (fp_text value C_0603 (at 0 1.5) (layer F.Fab) hide
      (effects (font (size 1 1) (thickness 0.15)))
    )
    (fp_line (start 1.4 0.65) (end -1.4 0.65) (layer F.CrtYd) (width 0.05))
    (fp_line (start 1.4 0.65) (end 1.4 -0.65) (layer F.CrtYd) (width 0.05))
    (fp_line (start -1.4 -0.65) (end -1.4 0.65) (layer F.CrtYd) (width 0.05))
    (fp_line (start -1.4 -0.65) (end 1.4 -0.65) (layer F.CrtYd) (width 0.05))
    (fp_line (start 0.35 0.6) (end -0.35 0.6) (layer F.SilkS) (width 0.12))
    (fp_line (start -0.35 -0.6) (end 0.35 -0.6) (layer F.SilkS) (width 0.12))
    (fp_line (start -0.8 -0.4) (end 0.8 -0.4) (layer F.Fab) (width 0.1))
    (fp_line (start 0.8 -0.4) (end 0.8 0.4) (layer F.Fab) (width 0.1))
    (fp_line (start 0.8 0.4) (end -0.8 0.4) (layer F.Fab) (width 0.1))
    (fp_line (start -0.8 0.4) (end -0.8 -0.4) (layer F.Fab) (width 0.1))
    (fp_text user %R (at 0 0) (layer F.Fab)
      (effects (font (size 0.3 0.3) (thickness 0.075)))
    )
    (pad 2 smd rect (at 0.75 0) (size 0.8 0.75) (layers F.Cu F.Paste F.Mask))
    (pad 1 smd rect (at -0.75 0) (size 0.8 0.75) (layers F.Cu F.Paste F.Mask))
    (model Capacitors_SMD.3dshapes/C_0603.wrl
      (at (xyz 0 0 0))
      (scale (xyz 1 1 1))
      (rotate (xyz 0 0 0))
    )
  )

  (module Capacitors_SMD:C_0805 (layer F.Cu) (tedit 59F50986) (tstamp 59F4FA05)
    (at 114.3 73.66)
    (descr "Capacitor SMD 0805, reflow soldering, AVX (see smccp.pdf)")
    (tags "capacitor 0805")
    (attr smd)
    (fp_text reference REF** (at 0 -1.5) (layer F.SilkS) hide
      (effects (font (size 1 1) (thickness 0.15)))
    )
    (fp_text value C_0805 (at 0 1.75) (layer F.Fab) hide
      (effects (font (size 1 1) (thickness 0.15)))
    )
    (fp_text user %R (at 0 -1.5) (layer F.Fab) hide
      (effects (font (size 1 1) (thickness 0.15)))
    )
    (fp_line (start -1 0.62) (end -1 -0.62) (layer F.Fab) (width 0.1))
    (fp_line (start 1 0.62) (end -1 0.62) (layer F.Fab) (width 0.1))
    (fp_line (start 1 -0.62) (end 1 0.62) (layer F.Fab) (width 0.1))
    (fp_line (start -1 -0.62) (end 1 -0.62) (layer F.Fab) (width 0.1))
    (fp_line (start 0.5 -0.85) (end -0.5 -0.85) (layer F.SilkS) (width 0.12))
    (fp_line (start -0.5 0.85) (end 0.5 0.85) (layer F.SilkS) (width 0.12))
    (fp_line (start -1.75 -0.88) (end 1.75 -0.88) (layer F.CrtYd) (width 0.05))
    (fp_line (start -1.75 -0.88) (end -1.75 0.87) (layer F.CrtYd) (width 0.05))
    (fp_line (start 1.75 0.87) (end 1.75 -0.88) (layer F.CrtYd) (width 0.05))
    (fp_line (start 1.75 0.87) (end -1.75 0.87) (layer F.CrtYd) (width 0.05))
    (pad 1 smd rect (at -1 0) (size 1 1.25) (layers F.Cu F.Paste F.Mask))
    (pad 2 smd rect (at 1 0) (size 1 1.25) (layers F.Cu F.Paste F.Mask))
    (model Capacitors_SMD.3dshapes/C_0805.wrl
      (at (xyz 0 0 0))
      (scale (xyz 1 1 1))
      (rotate (xyz 0 0 0))
    )
  )

  (module Capacitors_SMD:C_1206 (layer F.Cu) (tedit 59F50988) (tstamp 59F4FA12)
    (at 120.65 73.66)
    (descr "Capacitor SMD 1206, reflow soldering, AVX (see smccp.pdf)")
    (tags "capacitor 1206")
    (attr smd)
    (fp_text reference REF** (at 0 -1.75) (layer F.SilkS) hide
      (effects (font (size 1 1) (thickness 0.15)))
    )
    (fp_text value C_1206 (at 0 2) (layer F.Fab) hide
      (effects (font (size 1 1) (thickness 0.15)))
    )
    (fp_text user %R (at 0 -1.75) (layer F.Fab) hide
      (effects (font (size 1 1) (thickness 0.15)))
    )
    (fp_line (start -1.6 0.8) (end -1.6 -0.8) (layer F.Fab) (width 0.1))
    (fp_line (start 1.6 0.8) (end -1.6 0.8) (layer F.Fab) (width 0.1))
    (fp_line (start 1.6 -0.8) (end 1.6 0.8) (layer F.Fab) (width 0.1))
    (fp_line (start -1.6 -0.8) (end 1.6 -0.8) (layer F.Fab) (width 0.1))
    (fp_line (start 1 -1.02) (end -1 -1.02) (layer F.SilkS) (width 0.12))
    (fp_line (start -1 1.02) (end 1 1.02) (layer F.SilkS) (width 0.12))
    (fp_line (start -2.25 -1.05) (end 2.25 -1.05) (layer F.CrtYd) (width 0.05))
    (fp_line (start -2.25 -1.05) (end -2.25 1.05) (layer F.CrtYd) (width 0.05))
    (fp_line (start 2.25 1.05) (end 2.25 -1.05) (layer F.CrtYd) (width 0.05))
    (fp_line (start 2.25 1.05) (end -2.25 1.05) (layer F.CrtYd) (width 0.05))
    (pad 1 smd rect (at -1.5 0) (size 1 1.6) (layers F.Cu F.Paste F.Mask))
    (pad 2 smd rect (at 1.5 0) (size 1 1.6) (layers F.Cu F.Paste F.Mask))
    (model Capacitors_SMD.3dshapes/C_1206.wrl
      (at (xyz 0 0 0))
      (scale (xyz 1 1 1))
      (rotate (xyz 0 0 0))
    )
  )

  (module Microchip:44-TQFP (layer F.Cu) (tedit 59F5098E) (tstamp 59F4FAB2)
    (at 131.5974 91.821)
    (descr http://ww1.microchip.com/downloads/en/DeviceDoc/40001412G.pdf)
    (tags sm,tqfp,microchip,pic18)
    (attr smd)
    (fp_text reference REF** (at 0 -2.667) (layer F.SilkS) hide
      (effects (font (size 1 1) (thickness 0.15)))
    )
    (fp_text value 44-TQFP (at 0 -0.1016) (layer F.Fab) hide
      (effects (font (size 1 1) (thickness 0.15)))
    )
    (fp_circle (center -9.6 -4.6) (end -8.8 -4) (layer F.SilkS) (width 0.15))
    (pad 6 smd rect (at -5.7 0) (size 1.5 0.55) (layers F.Cu F.Paste F.Mask))
    (pad 5 smd rect (at -5.7 -0.8) (size 1.5 0.55) (layers F.Cu F.Paste F.Mask))
    (pad 4 smd rect (at -5.7 -1.6) (size 1.5 0.55) (layers F.Cu F.Paste F.Mask))
    (pad 3 smd rect (at -5.7 -2.4) (size 1.5 0.55) (layers F.Cu F.Paste F.Mask))
    (pad 2 smd rect (at -5.7 -3.2) (size 1.5 0.55) (layers F.Cu F.Paste F.Mask))
    (pad 1 smd rect (at -5.7 -4) (size 1.5 0.55) (layers F.Cu F.Paste F.Mask))
    (pad 7 smd rect (at -5.7 0.8) (size 1.5 0.55) (layers F.Cu F.Paste F.Mask))
    (pad 8 smd rect (at -5.7 1.6) (size 1.5 0.55) (layers F.Cu F.Paste F.Mask))
    (pad 9 smd rect (at -5.7 2.4) (size 1.5 0.55) (layers F.Cu F.Paste F.Mask))
    (pad 10 smd rect (at -5.7 3.2) (size 1.5 0.55) (layers F.Cu F.Paste F.Mask))
    (pad 11 smd rect (at -5.7 4) (size 1.5 0.55) (layers F.Cu F.Paste F.Mask))
    (pad 32 smd rect (at 5.7 -3.2) (size 1.5 0.55) (layers F.Cu F.Paste F.Mask))
    (pad 29 smd rect (at 5.7 -0.8) (size 1.5 0.55) (layers F.Cu F.Paste F.Mask))
    (pad 30 smd rect (at 5.7 -1.6) (size 1.5 0.55) (layers F.Cu F.Paste F.Mask))
    (pad 31 smd rect (at 5.7 -2.4) (size 1.5 0.55) (layers F.Cu F.Paste F.Mask))
    (pad 33 smd rect (at 5.7 -4) (size 1.5 0.55) (layers F.Cu F.Paste F.Mask))
    (pad 28 smd rect (at 5.7 0) (size 1.5 0.55) (layers F.Cu F.Paste F.Mask))
    (pad 23 smd rect (at 5.7 4) (size 1.5 0.55) (layers F.Cu F.Paste F.Mask))
    (pad 24 smd rect (at 5.7 3.2) (size 1.5 0.55) (layers F.Cu F.Paste F.Mask))
    (pad 27 smd rect (at 5.7 0.8) (size 1.5 0.55) (layers F.Cu F.Paste F.Mask))
    (pad 26 smd rect (at 5.7 1.6) (size 1.5 0.55) (layers F.Cu F.Paste F.Mask))
    (pad 25 smd rect (at 5.7 2.4) (size 1.5 0.55) (layers F.Cu F.Paste F.Mask))
    (pad 39 smd rect (at 0 -5.7 90) (size 1.5 0.55) (layers F.Cu F.Paste F.Mask))
    (pad 38 smd rect (at 0.8 -5.7 90) (size 1.5 0.55) (layers F.Cu F.Paste F.Mask))
    (pad 37 smd rect (at 1.6 -5.7 90) (size 1.5 0.55) (layers F.Cu F.Paste F.Mask))
    (pad 36 smd rect (at 2.4 -5.7 90) (size 1.5 0.55) (layers F.Cu F.Paste F.Mask))
    (pad 35 smd rect (at 3.2 -5.7 90) (size 1.5 0.55) (layers F.Cu F.Paste F.Mask))
    (pad 34 smd rect (at 4 -5.7 90) (size 1.5 0.55) (layers F.Cu F.Paste F.Mask))
    (pad 40 smd rect (at -0.8 -5.7 90) (size 1.5 0.55) (layers F.Cu F.Paste F.Mask))
    (pad 41 smd rect (at -1.6 -5.7 90) (size 1.5 0.55) (layers F.Cu F.Paste F.Mask))
    (pad 42 smd rect (at -2.4 -5.7 90) (size 1.5 0.55) (layers F.Cu F.Paste F.Mask))
    (pad 43 smd rect (at -3.2 -5.7 90) (size 1.5 0.55) (layers F.Cu F.Paste F.Mask))
    (pad 44 smd rect (at -4 -5.7 90) (size 1.5 0.55) (layers F.Cu F.Paste F.Mask))
    (pad 22 smd rect (at 4 5.7 90) (size 1.5 0.55) (layers F.Cu F.Paste F.Mask))
    (pad 21 smd rect (at 3.2 5.7 90) (size 1.5 0.55) (layers F.Cu F.Paste F.Mask))
    (pad 20 smd rect (at 2.4 5.7 90) (size 1.5 0.55) (layers F.Cu F.Paste F.Mask))
    (pad 18 smd rect (at 0.8 5.7 90) (size 1.5 0.55) (layers F.Cu F.Paste F.Mask))
    (pad 19 smd rect (at 1.6 5.7 90) (size 1.5 0.55) (layers F.Cu F.Paste F.Mask))
    (pad 12 smd rect (at -4 5.7 90) (size 1.5 0.55) (layers F.Cu F.Paste F.Mask))
    (pad 13 smd rect (at -3.2 5.7 90) (size 1.5 0.55) (layers F.Cu F.Paste F.Mask))
    (pad 16 smd rect (at -0.8 5.7 90) (size 1.5 0.55) (layers F.Cu F.Paste F.Mask))
    (pad 15 smd rect (at -1.6 5.7 90) (size 1.5 0.55) (layers F.Cu F.Paste F.Mask))
    (pad 14 smd rect (at -2.4 5.7 90) (size 1.5 0.55) (layers F.Cu F.Paste F.Mask))
    (pad 17 smd rect (at 0 5.7 90) (size 1.5 0.55) (layers F.Cu F.Paste F.Mask))
  )

  (gr_text 1206 (at 120.7008 71.6026) (layer F.Cu) (tstamp 59F50837)
    (effects (font (size 0.75 0.75) (thickness 0.1875)))
  )
  (gr_text 0805 (at 114.3762 71.7804) (layer F.Cu) (tstamp 59F50836)
    (effects (font (size 0.75 0.75) (thickness 0.1875)))
  )
  (gr_text 0603 (at 107.9246 72.009) (layer F.Cu) (tstamp 59F50835)
    (effects (font (size 0.75 0.75) (thickness 0.1875)))
  )
  (gr_text 0402 (at 101.4984 72.1868) (layer F.Cu) (tstamp 59F50834)
    (effects (font (size 0.75 0.75) (thickness 0.1875)))
  )
  (gr_text 0201 (at 95.2754 72.2376) (layer F.Cu)
    (effects (font (size 0.75 0.75) (thickness 0.1875)))
  )
  (gr_text "Dia: 3mm\nDrill: 0.1.016mm" (at 105.6386 94.6404 90) (layer F.Cu) (tstamp 59F50750)
    (effects (font (size 0.75 0.75) (thickness 0.1875)))
  )
  (gr_text "Dia: 1.75mm\nDrill: 0.5334mm" (at 99.6442 94.5134 90) (layer F.Cu) (tstamp 59F50708)
    (effects (font (size 0.75 0.75) (thickness 0.1875)))
  )
  (gr_text "Dia: 1mm\nDrill: 0.3429mm" (at 93.6752 94.5642 90) (layer F.Cu)
    (effects (font (size 0.75 0.75) (thickness 0.1875)))
  )
  (gr_text 1mm (at 118.0846 78.5368 90) (layer F.Cu) (tstamp 59F506B0)
    (effects (font (size 0.75 0.75) (thickness 0.1875)))
  )
  (gr_text 0.75mm (at 112.3188 83.4644 90) (layer F.Cu) (tstamp 59F506A6)
    (effects (font (size 0.75 0.75) (thickness 0.1875)))
  )
  (gr_text 0.5mm (at 106.3498 83.2358 90) (layer F.Cu) (tstamp 59F50697)
    (effects (font (size 0.75 0.75) (thickness 0.1875)))
  )
  (gr_text 0.25mm (at 100.3046 82.4484 90) (layer F.Cu) (tstamp 59F50663)
    (effects (font (size 0.75 0.75) (thickness 0.1875)))
  )
  (gr_text 0.025mm (at 94.3864 82.3468 90) (layer F.Cu) (tstamp 59F5064A)
    (effects (font (size 0.75 0.75) (thickness 0.1875)))
  )
  (gr_text 1mm (at 134.5438 82.0166 90) (layer F.Cu) (tstamp 59F50617)
    (effects (font (size 0.75 0.75) (thickness 0.1875)))
  )
  (gr_text 0.5mm (at 132.4102 82.0166 90) (layer F.Cu) (tstamp 59F50616)
    (effects (font (size 0.75 0.75) (thickness 0.1875)))
  )
  (gr_text 0.75mm (at 133.4516 82.0166 90) (layer F.Cu) (tstamp 59F50615)
    (effects (font (size 0.75 0.75) (thickness 0.1875)))
  )
  (gr_text 0.25mm (at 131.3434 82.042 90) (layer F.Cu) (tstamp 59F505EB)
    (effects (font (size 0.75 0.75) (thickness 0.1875)))
  )
  (gr_text 0.2mm (at 130.2512 82.042 90) (layer F.Cu) (tstamp 59F5059A)
    (effects (font (size 0.75 0.75) (thickness 0.1875)))
  )
  (gr_text 0.1mm (at 129.2098 82.042 90) (layer F.Cu) (tstamp 59F50594)
    (effects (font (size 0.75 0.75) (thickness 0.1875)))
  )
  (gr_text 0.075mm (at 128.143 82.042 90) (layer F.Cu) (tstamp 59F50590)
    (effects (font (size 0.75 0.75) (thickness 0.1875)))
  )
  (gr_text 0.05mm (at 127.0508 82.042 90) (layer F.Cu) (tstamp 59F5058D)
    (effects (font (size 0.75 0.75) (thickness 0.1875)))
  )
  (gr_text 0.025mm (at 125.9586 82.042 90) (layer F.Cu)
    (effects (font (size 0.75 0.75) (thickness 0.1875)))
  )
  (gr_line (start 90 70) (end 90 100) (angle 90) (layer Edge.Cuts) (width 0.1))
  (gr_line (start 90 100) (end 140 100) (angle 90) (layer Edge.Cuts) (width 0.1))
  (gr_line (start 140 70) (end 140 100) (angle 90) (layer Edge.Cuts) (width 0.1))
  (gr_line (start 90 70) (end 140 70) (angle 90) (layer Edge.Cuts) (width 0.1))

  (segment (start 125.2474 77.6732) (end 125.2474 78.6384) (width 0.5) (layer F.Cu) (net 0) (tstamp 59F50498))
  (segment (start 125.73 78.1558) (end 125.2474 77.6732) (width 0.5) (layer F.Cu) (net 0) (tstamp 59F50497))
  (segment (start 125.2474 78.6384) (end 125.73 78.1558) (width 0.5) (layer F.Cu) (net 0) (tstamp 59F50496))
  (segment (start 125.2474 71.3486) (end 125.2474 72.3138) (width 0.5) (layer F.Cu) (net 0))
  (segment (start 125.73 71.8312) (end 125.2474 71.3486) (width 0.5) (layer F.Cu) (net 0))
  (segment (start 125.2474 72.3138) (end 125.73 71.8312) (width 0.5) (layer F.Cu) (net 0))
  (segment (start 126.5875 71) (end 126.5875 79) (width 0.2) (layer F.Cu) (net 0) (tstamp 59F50097))
  (segment (start 126.3375 71) (end 126.3375 79) (width 0.1) (layer F.Cu) (net 0) (tstamp 59F50083))
  (segment (start 126.175 71) (end 126.175 79) (width 0.075) (layer F.Cu) (net 0))
  (segment (start 126.0625 71) (end 126.0625 79) (width 0.05) (layer F.Cu) (net 0))
  (segment (start 130.3875 71) (end 130.3875 79) (width 1) (layer F.Cu) (net 0))
  (segment (start 128.7625 71) (end 128.7625 79) (width 0.75) (layer F.Cu) (net 0))
  (segment (start 127.6375 71) (end 127.6375 79) (width 0.5) (layer F.Cu) (net 0))
  (segment (start 127.0125 71) (end 127.0125 79) (width 0.25) (layer F.Cu) (net 0))
  (segment (start 126 71) (end 126 79) (width 0.025) (layer F.Cu) (net 0))
  (segment (start 95.53 73.66) (end 95.53 73.685) (width 0.025) (layer F.Cu) (net 0))
  (segment (start 95.53 73.685) (end 95.7072 73.8622) (width 0.025) (layer F.Cu) (net 0))
  (segment (start 119.444 95.821) (end 121.144 97.521) (width 0.5) (layer F.Cu) (net 0))
  (segment (start 121.144 97.521) (end 127.5974 97.521) (width 0.5) (layer F.Cu) (net 0))
  (segment (start 125.8974 95.821) (end 119.444 95.821) (width 0.5) (layer F.Cu) (net 0))
  (segment (start 118.9612 94.221) (end 119.7612 95.021) (width 0.5) (layer F.Cu) (net 0))
  (segment (start 119.7612 95.021) (end 125.8974 95.021) (width 0.5) (layer F.Cu) (net 0))
  (segment (start 125.8974 94.221) (end 118.9612 94.221) (width 0.5) (layer F.Cu) (net 0))
  (segment (start 118.9102 92.621) (end 119.7102 93.421) (width 0.5) (layer F.Cu) (net 0))
  (segment (start 119.7102 93.421) (end 125.8974 93.421) (width 0.5) (layer F.Cu) (net 0))
  (segment (start 125.8974 92.621) (end 118.9102 92.621) (width 0.5) (layer F.Cu) (net 0))
  (segment (start 119.3164 91.021) (end 120.1164 91.821) (width 0.5) (layer F.Cu) (net 0))
  (segment (start 120.1164 91.821) (end 125.8974 91.821) (width 0.5) (layer F.Cu) (net 0))
  (segment (start 125.8974 91.021) (end 119.3164 91.021) (width 0.5) (layer F.Cu) (net 0))
  (segment (start 120.6878 89.421) (end 121.4878 90.221) (width 0.5) (layer F.Cu) (net 0))
  (segment (start 121.4878 90.221) (end 125.8974 90.221) (width 0.5) (layer F.Cu) (net 0))
  (segment (start 125.8974 89.421) (end 120.6878 89.421) (width 0.5) (layer F.Cu) (net 0))
  (segment (start 120.2558 87.821) (end 121.0558 88.621) (width 0.5) (layer F.Cu) (net 0))
  (segment (start 121.0558 88.621) (end 125.8974 88.621) (width 0.5) (layer F.Cu) (net 0))
  (segment (start 125.8974 87.821) (end 120.2558 87.821) (width 0.5) (layer F.Cu) (net 0))
  (via (at 115.2906 97.2566) (size 3) (drill 1.016) (layers F.Cu B.Cu) (net 0))
  (segment (start 113.3 93.1164) (end 113.3 96.3582) (width 0.75) (layer F.Cu) (net 0))
  (segment (start 113.3 90.3732) (end 113.3 93.1164) (width 0.75) (layer F.Cu) (net 0))
  (via (at 113.3 93.1164) (size 1.75) (drill 0.5334) (layers F.Cu B.Cu) (net 0))
  (segment (start 113.3 73.66) (end 113.3 90.3732) (width 0.75) (layer F.Cu) (net 0))
  (via (at 113.3 90.3732) (size 1) (drill 0.3429) (layers F.Cu B.Cu) (net 0))
  (via (at 108.4072 97.1042) (size 3) (drill 1.016) (layers F.Cu B.Cu) (net 0))
  (via (at 101.8286 95.7072) (size 1.75) (drill 0.5334) (layers F.Cu B.Cu) (net 0))
  (via (at 95.5294 95.8088) (size 1) (drill 0.3429) (layers F.Cu B.Cu) (net 0))
  (segment (start 122.15 82.828) (end 122.15 73.66) (width 1) (layer F.Cu) (net 0))
  (segment (start 119.1514 80.1878) (end 121.9708 83.0072) (width 1) (layer F.Cu) (net 0))
  (segment (start 119.1514 75.4614) (end 119.1514 80.1878) (width 1) (layer F.Cu) (net 0))
  (segment (start 119.15 73.66) (end 119.15 75.46) (width 1) (layer F.Cu) (net 0))
  (segment (start 119.15 75.46) (end 119.1514 75.4614) (width 1) (layer F.Cu) (net 0))
  (segment (start 113.3 96.3582) (end 115.3 98.3582) (width 0.75) (layer F.Cu) (net 0))
  (segment (start 115.3 98.3582) (end 115.3 73.66) (width 0.75) (layer F.Cu) (net 0))
  (segment (start 108.4072 97.1042) (end 108.7 96.8114) (width 0.5) (layer F.Cu) (net 0))
  (segment (start 108.7 96.8114) (end 108.7 73.66) (width 0.5) (layer F.Cu) (net 0))
  (segment (start 107.2 95.897) (end 108.4072 97.1042) (width 0.5) (layer F.Cu) (net 0))
  (segment (start 107.2 73.66) (end 107.2 95.897) (width 0.5) (layer F.Cu) (net 0))
  (segment (start 102.15 73.66) (end 102.15 95.3858) (width 0.25) (layer F.Cu) (net 0))
  (segment (start 102.15 95.3858) (end 101.8286 95.7072) (width 0.25) (layer F.Cu) (net 0))
  (segment (start 101.05 73.66) (end 101.05 94.9286) (width 0.25) (layer F.Cu) (net 0))
  (segment (start 101.05 94.9286) (end 101.8286 95.7072) (width 0.25) (layer F.Cu) (net 0))
  (segment (start 95.53 73.66) (end 95.53 95.8082) (width 0.025) (layer F.Cu) (net 0))
  (segment (start 95.53 95.8082) (end 95.5294 95.8088) (width 0.025) (layer F.Cu) (net 0))
  (segment (start 94.97 73.66) (end 94.97 95.2494) (width 0.025) (layer F.Cu) (net 0))
  (segment (start 94.97 95.2494) (end 95.5294 95.8088) (width 0.025) (layer F.Cu) (net 0))

)
